[
  {
    "s.n": "1",
    "full_name": "sandesh",
    "address": "samakhusi",
    "blood_group": "B+",
    "contact": "9806070809"
  },
  {
    "s.n": "2",
    "full_name": "ashwin",
    "address": "kathmandu",
    "blood_group": "A+",
    "contact": "9860323278"
  },
  {
    "s.n": "3",
    "full_name": "subham singh",
    "address": "kathmandu",
    "blood_group": "a+",
    "contact": "9848273500"
  },
  {
    "s.n": "4",
    "full_name": "bikash sharma",
    "address": "kathmandu",
    "blood_group": "o+",
    "contact": "9843563488"
  },
  {
    "s.n": "5",
    "full_name": "",
    "address": "kathmandu",
    "blood_group": "b+",
    "contact": "9847284130"
  },
  {
    "s.n": "6",
    "full_name": "",
    "address": "kathmandu",
    "blood_group": "a+",
    "contact": "9849628932"
  },
  {
    "s.n": "7",
    "full_name": "",
    "address": "kathmandu",
    "blood_group": "o+",
    "contact": "9843741925"
  },
  {
    "s.n": "8",
    "full_name": "",
    "address": "koteshwor",
    "blood_group": "b+",
    "contact": "9818226257"
  },
  {
    "s.n": "9",
    "full_name": "",
    "address": "new baneshwor",
    "blood_group": "b+",
    "contact": "9869035902"
  },
  {
    "s.n": "10",
    "full_name": "",
    "address": "kathmandu",
    "blood_group": "ab+",
    "contact": "9803401175"
  },
  {
    "s.n": "11",
    "full_name": "",
    "address": "satungal",
    "blood_group": "o+",
    "contact": "9843274449"
  },
  {
    "s.n": "12",
    "full_name": "",
    "address": "kathmandu",
    "blood_group": "a+",
    "contact": "9868012123"
  },
  {
    "s.n": "13",
    "full_name": "",
    "address": "kathmandu",
    "blood_group": "b+",
    "contact": "9843786757"
  },
  {
    "s.n": "14",
    "full_name": "anish joshi",
    "address": "kathmandu",
    "blood_group": "a+",
    "contact": "9849171967"
  },
  {
    "s.n": "15",
    "full_name": "",
    "address": "satdobato",
    "blood_group": "a+",
    "contact": "9857068804"
  },
  {
    "s.n": "16",
    "full_name": "",
    "address": "kathmandu",
    "blood_group": "ab+",
    "contact": "9841973819"
  },
  {
    "s.n": "17",
    "full_name": "",
    "address": "dhumbarahi",
    "blood_group": "o+",
    "contact": "9865712583"
  },
  {
    "s.n": "18",
    "full_name": "",
    "address": "chabahil",
    "blood_group": "o+",
    "contact": "9851047518"
  },
  {
    "s.n": "19",
    "full_name": "",
    "address": "kathmandu",
    "blood_group": "o+",
    "contact": "9867259023"
  },
  {
    "s.n": "20",
    "full_name": "",
    "address": "kritipur",
    "blood_group": "o+",
    "contact": "98413011210"
  },
  {
    "s.n": "21",
    "full_name": "",
    "address": "kathmandu",
    "blood_group": "ab+",
    "contact": "9813348935"
  },
  {
    "s.n": "22",
    "full_name": "",
    "address": "kathmandu",
    "blood_group": "ab-",
    "contact": "9861166344"
  },
  {
    "s.n": "23",
    "full_name": "subash basnet",
    "address": "sinamangal",
    "blood_group": "o+",
    "contact": "9801087411"
  },
  {
    "s.n": "24",
    "full_name": "",
    "address": "sanothimi",
    "blood_group": "o+",
    "contact": "9851080928"
  },
  {
    "s.n": "25",
    "full_name": "",
    "address": "kathmandu",
    "blood_group": "a+",
    "contact": "9860779149"
  },
  {
    "s.n": "26",
    "full_name": "",
    "address": "kathmandu",
    "blood_group": "o+",
    "contact": "9841301121"
  },
  {
    "s.n": "27",
    "full_name": "",
    "address": "kathmandu",
    "blood_group": "b+",
    "contact": "9841956518"
  },
  {
    "s.n": "28",
    "full_name": "ravi chand",
    "address": "satdobato",
    "blood_group": "o-",
    "contact": "9849771460"
  },
  {
    "s.n": "29",
    "full_name": "",
    "address": "kathmandu",
    "blood_group": "b+",
    "contact": "9843495202"
  },
  {
    "s.n": "30",
    "full_name": "",
    "address": "manmaiju/new buspark",
    "blood_group": "b+",
    "contact": "9860002015"
  },
  {
    "s.n": "31",
    "full_name": "sandy",
    "address": "kathmandu",
    "blood_group": "b+",
    "contact": "9847114858"
  },
  {
    "s.n": "32",
    "full_name": "",
    "address": "kathmandu",
    "blood_group": "a+",
    "contact": "9849273772"
  },
  {
    "s.n": "33",
    "full_name": "",
    "address": "basundhara",
    "blood_group": "a+",
    "contact": "9848273500"
  },
  {
    "s.n": "34",
    "full_name": "",
    "address": "jadibuti",
    "blood_group": "b+",
    "contact": "9843215868"
  },
  {
    "s.n": "35",
    "full_name": "",
    "address": "budhanilkantha",
    "blood_group": "o+",
    "contact": "9849363345"
  },
  {
    "s.n": "36",
    "full_name": "mrrian ashirbad",
    "address": "kathmandu",
    "blood_group": "b+",
    "contact": "9846285547"
  },
  {
    "s.n": "37",
    "full_name": "saroj kharel",
    "address": "kathmandu",
    "blood_group": "o+",
    "contact": "9806022239"
  },
  {
    "s.n": "38",
    "full_name": "dinesh tamang",
    "address": "kathmandu",
    "blood_group": "a+",
    "contact": "9849682034"
  },
  {
    "s.n": "39",
    "full_name": "gopal kharal",
    "address": "kathmandu",
    "blood_group": "a+",
    "contact": "9851249338"
  },
  {
    "s.n": "40",
    "full_name": "mukesh thapa magar",
    "address": "kathmandu",
    "blood_group": "o+",
    "contact": "9812967988"
  },
  {
    "s.n": "41",
    "full_name": "ro xan",
    "address": "kathmandu",
    "blood_group": "o+",
    "contact": "9810939988"
  },
  {
    "s.n": "42",
    "full_name": "suren",
    "address": "kathmandu",
    "blood_group": "b+",
    "contact": "9851240198"
  },
  {
    "s.n": "43",
    "full_name": "lokendra thapa",
    "address": "kathmandu",
    "blood_group": "o+",
    "contact": "9801051791"
  },
  {
    "s.n": "44",
    "full_name": "mahan nepal",
    "address": "kathmandu",
    "blood_group": "a+",
    "contact": "9803342410"
  },
  {
    "s.n": "45",
    "full_name": "niraj shah",
    "address": "kathmandu",
    "blood_group": "a+",
    "contact": "9880195430"
  },
  {
    "s.n": "46",
    "full_name": "aman gautam",
    "address": "kathmandu",
    "blood_group": "o+",
    "contact": "9846366349"
  },
  {
    "s.n": "47",
    "full_name": "saroj shrestha",
    "address": "kathmandu",
    "blood_group": "a+",
    "contact": "9847642333"
  },
  {
    "s.n": "48",
    "full_name": "kusan paudel",
    "address": "kathmandu",
    "blood_group": "a+",
    "contact": "9862673849"
  },
  {
    "s.n": "49",
    "full_name": "rinish benzenkar",
    "address": "kathmandu",
    "blood_group": "a+",
    "contact": "9840015204"
  },
  {
    "s.n": "50",
    "full_name": "manish thapa",
    "address": "kathmandu",
    "blood_group": "a+",
    "contact": "9843484950"
  },
  {
    "s.n": "51",
    "full_name": "sailesh",
    "address": "kathmandu",
    "blood_group": "a+",
    "contact": "9860779149"
  },
  {
    "s.n": "52",
    "full_name": "bhaskar",
    "address": "kathmandu",
    "blood_group": "a+",
    "contact": "9849628932"
  },
  {
    "s.n": "53",
    "full_name": "pranjal",
    "address": "kathmandu",
    "blood_group": "ab+",
    "contact": "9860201287"
  },
  {
    "s.n": "54",
    "full_name": "ismam ansari",
    "address": "kathmandu",
    "blood_group": "o+",
    "contact": "9840013197"
  },
  {
    "s.n": "55",
    "full_name": "shree maharjan",
    "address": "kathmandu",
    "blood_group": "ab+",
    "contact": "9849203903"
  },
  {
    "s.n": "56",
    "full_name": "ghimire santosh",
    "address": "kathmandu",
    "blood_group": "a+",
    "contact": "9849303448"
  },
  {
    "s.n": "57",
    "full_name": "",
    "address": "kathmandu",
    "blood_group": "b+",
    "contact": "9861445379"
  },
  {
    "s.n": "58",
    "full_name": "",
    "address": "balaju",
    "blood_group": "a+",
    "contact": "9880106073"
  },
  {
    "s.n": "59",
    "full_name": "",
    "address": "kathmandu",
    "blood_group": "o+",
    "contact": "9863847480"
  },
  {
    "s.n": "60",
    "full_name": "",
    "address": "kathmandu",
    "blood_group": "o+",
    "contact": "9862918787"
  },
  {
    "s.n": "61",
    "full_name": "",
    "address": "teku",
    "blood_group": "ab+",
    "contact": "9849203903"
  },
  {
    "s.n": "62",
    "full_name": "",
    "address": "maitidevi",
    "blood_group": "a+",
    "contact": "9840024032"
  },
  {
    "s.n": "63",
    "full_name": "",
    "address": "koteshwor",
    "blood_group": "o+",
    "contact": "9849953398"
  },
  {
    "s.n": "64",
    "full_name": "",
    "address": "bangalamukhi",
    "blood_group": "o+",
    "contact": "9807890486"
  },
  {
    "s.n": "65",
    "full_name": "",
    "address": "kathmandu",
    "blood_group": "a+",
    "contact": "9813757057"
  },
  {
    "s.n": "66",
    "full_name": "",
    "address": "buddhanagar",
    "blood_group": "a+",
    "contact": "9868089317"
  },
  {
    "s.n": "67",
    "full_name": "",
    "address": "kathmandu",
    "blood_group": "a+",
    "contact": "9869391089"
  },
  {
    "s.n": "68",
    "full_name": "",
    "address": "koteshwor",
    "blood_group": "o+",
    "contact": "9860265314"
  },
  {
    "s.n": "69",
    "full_name": "",
    "address": "bauddha",
    "blood_group": "b+",
    "contact": "9860001575"
  },
  {
    "s.n": "70",
    "full_name": "",
    "address": "kathmandu",
    "blood_group": "b+",
    "contact": "9818684056"
  },
  {
    "s.n": "71",
    "full_name": "",
    "address": "jadibuti",
    "blood_group": "a+",
    "contact": "9841398897"
  },
  {
    "s.n": "72",
    "full_name": "",
    "address": "kathmandu",
    "blood_group": "b+",
    "contact": "9813574914"
  },
  {
    "s.n": "73",
    "full_name": "shokhel",
    "address": "kathmandu",
    "blood_group": "o+",
    "contact": "9841189462"
  },
  {
    "s.n": "74",
    "full_name": "",
    "address": "patan",
    "blood_group": "a+",
    "contact": "9842711870"
  },
  {
    "s.n": "75",
    "full_name": "shirish",
    "address": "kalanki",
    "blood_group": "a+",
    "contact": "9840014429"
  },
  {
    "s.n": "76",
    "full_name": "nischal khanal",
    "address": "narayangopal chwok",
    "blood_group": "o-",
    "contact": "9860924277"
  },
  {
    "s.n": "77",
    "full_name": "xhrestha prajish",
    "address": "kathmandu",
    "blood_group": "a+",
    "contact": "9808351271"
  },
  {
    "s.n": "78",
    "full_name": "tri sh na",
    "address": "kathmandu",
    "blood_group": "b+",
    "contact": "9867524782"
  },
  {
    "s.n": "79",
    "full_name": "dipak blon",
    "address": "kathmandu",
    "blood_group": "o+",
    "contact": "9808704563"
  },
  {
    "s.n": "80",
    "full_name": "sameekxa grg",
    "address": "kathmandu",
    "blood_group": "ab-",
    "contact": "9807232166"
  },
  {
    "s.n": "81",
    "full_name": "devraj narimha",
    "address": "balkumari",
    "blood_group": "imadol",
    "contact": "a+"
  },
  {
    "s.n": "82",
    "full_name": "floyd eric",
    "address": "kathmandu",
    "blood_group": "a+",
    "contact": "9860318239"
  },
  {
    "s.n": "83",
    "full_name": "aakash karki",
    "address": "new baneshwor",
    "blood_group": "b+",
    "contact": "9843937156"
  },
  {
    "s.n": "84",
    "full_name": "kushal purbey",
    "address": "kathmandu",
    "blood_group": "a+",
    "contact": "9811741191"
  },
  {
    "s.n": "85",
    "full_name": "raby themeh",
    "address": "bhaktapur",
    "blood_group": "o+",
    "contact": "9818351759"
  },
  {
    "s.n": "86",
    "full_name": "sujen shrestha",
    "address": "kathmandu",
    "blood_group": "a+",
    "contact": "9808000488"
  },
  {
    "s.n": "87",
    "full_name": "prem preet",
    "address": "kathmandu",
    "blood_group": "a+",
    "contact": "9812982665"
  },
  {
    "s.n": "88",
    "full_name": "sunita stha",
    "address": "kathmandu",
    "blood_group": "b+",
    "contact": "9823643396"
  },
  {
    "s.n": "89",
    "full_name": "sumesh mani pal",
    "address": "kathmandu",
    "blood_group": "a+",
    "contact": "9817232994"
  },
  {
    "s.n": "90",
    "full_name": "damodar sapkota",
    "address": "kathmandu",
    "blood_group": "a+",
    "contact": "9861043840"
  },
  {
    "s.n": "91",
    "full_name": "kabita sharma",
    "address": "kathmandu",
    "blood_group": "ab+",
    "contact": "9812567592"
  },
  {
    "s.n": "92",
    "full_name": "aayush rana",
    "address": "lalitpur",
    "blood_group": "ab+",
    "contact": "9803321401"
  },
  {
    "s.n": "93",
    "full_name": "suraj bhusal",
    "address": "kathmandu",
    "blood_group": "a+",
    "contact": "9806205214"
  },
  {
    "s.n": "94",
    "full_name": "",
    "address": "kathmandu",
    "blood_group": "a+",
    "contact": "9803904969"
  },
  {
    "s.n": "95",
    "full_name": "bulanda sejwal",
    "address": "kathmandu",
    "blood_group": "b+",
    "contact": "9810880880"
  },
  {
    "s.n": "96",
    "full_name": "chandan singh basnet",
    "address": "kathmandu",
    "blood_group": "o+",
    "contact": "9843756758"
  },
  {
    "s.n": "97",
    "full_name": "sulok gautam",
    "address": "kathmandu",
    "blood_group": "o+",
    "contact": "9801099192"
  },
  {
    "s.n": "98",
    "full_name": "kushal neupane",
    "address": "banasthali kathmandu",
    "blood_group": "ab+",
    "contact": "9846793987"
  },
  {
    "s.n": "99",
    "full_name": "suman maharjan",
    "address": "kathmandu",
    "blood_group": "b+",
    "contact": "9841851411"
  },
  {
    "s.n": "100",
    "full_name": "pooja lama tamang",
    "address": "kathmandu",
    "blood_group": "o+",
    "contact": "9818274676"
  },
  {
    "s.n": "101",
    "full_name": "digbijay mainali",
    "address": "kathmandu",
    "blood_group": "b+",
    "contact": "9862757114"
  },
  {
    "s.n": "102",
    "full_name": "bibek neupane",
    "address": "kathmandu",
    "blood_group": "o+",
    "contact": "9867307733"
  },
  {
    "s.n": "103",
    "full_name": "prakash",
    "address": "chabahil",
    "blood_group": "a-",
    "contact": "9808512821"
  },
  {
    "s.n": "104",
    "full_name": "kusum ramdam",
    "address": "kathmandu",
    "blood_group": "a+",
    "contact": "9813150342"
  },
  {
    "s.n": "105",
    "full_name": "bishal shrestha",
    "address": "kathmandu",
    "blood_group": "b+",
    "contact": "9840550585"
  },
  {
    "s.n": "106",
    "full_name": "deependra karki",
    "address": "godawori",
    "blood_group": "o+",
    "contact": "9823446610"
  },
  {
    "s.n": "107",
    "full_name": "rukesh rai",
    "address": "jawalakhel",
    "blood_group": "a+",
    "contact": "9849949959"
  },
  {
    "s.n": "108",
    "full_name": "madan lamichhane",
    "address": "gongabu",
    "blood_group": "b+",
    "contact": "9818685931"
  },
  {
    "s.n": "109",
    "full_name": "gyan maharjan",
    "address": "thecho",
    "blood_group": "lalitpur",
    "contact": "a-"
  },
  {
    "s.n": "110",
    "full_name": "ashutosh shrestha",
    "address": "koteshwor",
    "blood_group": "b+",
    "contact": "9860128145"
  },
  {
    "s.n": "111",
    "full_name": "saurabh dahal",
    "address": "tinkune",
    "blood_group": "o+",
    "contact": "9842522497"
  },
  {
    "s.n": "112",
    "full_name": "prabina thapa",
    "address": "baneshwor",
    "blood_group": "a+",
    "contact": "9824836074"
  },
  {
    "s.n": "113",
    "full_name": "arpan tamang",
    "address": "kathmandu",
    "blood_group": "b+",
    "contact": "9851201712"
  },
  {
    "s.n": "114",
    "full_name": "bimal risal",
    "address": "kathmandu",
    "blood_group": "a+",
    "contact": "9869251781"
  },
  {
    "s.n": "115",
    "full_name": "suraj bhandari",
    "address": "kathmandu",
    "blood_group": "ab+",
    "contact": "9849754686"
  },
  {
    "s.n": "116",
    "full_name": "roneshaa stha",
    "address": "kathmandu",
    "blood_group": "b+",
    "contact": "9813444346"
  },
  {
    "s.n": "117",
    "full_name": "bijesh joshi",
    "address": "kathmandu",
    "blood_group": "b+",
    "contact": "9810194418"
  },
  {
    "s.n": "118",
    "full_name": "bipul",
    "address": "kathmandu",
    "blood_group": "ab+",
    "contact": "9869242868"
  },
  {
    "s.n": "119",
    "full_name": "soan thapa",
    "address": "koteshwor",
    "blood_group": "b+",
    "contact": "9840060822"
  },
  {
    "s.n": "120",
    "full_name": "binod lama",
    "address": "kathmandu",
    "blood_group": "o+",
    "contact": "9813323181"
  },
  {
    "s.n": "121",
    "full_name": "sudip shrestha",
    "address": "kathmandu",
    "blood_group": "b+",
    "contact": "9810888573"
  },
  {
    "s.n": "122",
    "full_name": "nabina shrestha",
    "address": "kathmandu",
    "blood_group": "ab+",
    "contact": "9808092433"
  },
  {
    "s.n": "123",
    "full_name": "sarvesh poudel",
    "address": "imadol",
    "blood_group": "lalitpur",
    "contact": "o+"
  },
  {
    "s.n": "124",
    "full_name": "gokul pokhrel",
    "address": "kathmandu",
    "blood_group": "o+",
    "contact": "9813286323"
  },
  {
    "s.n": "125",
    "full_name": "pratik basnet",
    "address": "kathmandu",
    "blood_group": "a+",
    "contact": "9840166518"
  },
  {
    "s.n": "126",
    "full_name": "basanta rawat",
    "address": "balaju ",
    "blood_group": "b+",
    "contact": "9861004579"
  },
  {
    "s.n": "127",
    "full_name": "sahbean jisong",
    "address": "kathmandu",
    "blood_group": "o+",
    "contact": "9810246038"
  },
  {
    "s.n": "128",
    "full_name": "tenjin lama",
    "address": "jorpati",
    "blood_group": "ab+",
    "contact": "9860587022"
  },
  {
    "s.n": "129",
    "full_name": "denish ghimire",
    "address": "kathmandu",
    "blood_group": "ab+",
    "contact": "9843299881"
  },
  {
    "s.n": "130",
    "full_name": "sagar",
    "address": "baneshwor",
    "blood_group": "o+",
    "contact": "9840366544"
  },
  {
    "s.n": "131",
    "full_name": "anush pathak",
    "address": "kathmandu",
    "blood_group": "ab+",
    "contact": "9851141187"
  },
  {
    "s.n": "132",
    "full_name": "praful parajuli",
    "address": "kathmandu",
    "blood_group": "o+",
    "contact": "9866877113"
  },
  {
    "s.n": "133",
    "full_name": "usha adhikari",
    "address": "manmaiju/new buspark",
    "blood_group": "b+",
    "contact": "9849010656"
  },
  {
    "s.n": "134",
    "full_name": "shrawan phuyal",
    "address": "goldhunga/balaju",
    "blood_group": "a+",
    "contact": "9869577363"
  },
  {
    "s.n": "135",
    "full_name": "aasiem habib",
    "address": "new baneshwor",
    "blood_group": "b+",
    "contact": "9810067110"
  },
  {
    "s.n": "136",
    "full_name": "being kishan",
    "address": "kathmandu",
    "blood_group": "b+",
    "contact": "9851079918"
  },
  {
    "s.n": "137",
    "full_name": "ram bhandari",
    "address": "kathmandu",
    "blood_group": "ab+",
    "contact": "9860137527"
  },
  {
    "s.n": "138",
    "full_name": "amrita rokka",
    "address": "koteshwor",
    "blood_group": "a+",
    "contact": "9865009763"
  },
  {
    "s.n": "139",
    "full_name": "bibechan ghimire",
    "address": "kathmandu",
    "blood_group": "a+",
    "contact": "9849284324"
  },
  {
    "s.n": "140",
    "full_name": "labh shah",
    "address": "kathmandu",
    "blood_group": "a+",
    "contact": "9809184211"
  },
  {
    "s.n": "141",
    "full_name": "rajeev singh",
    "address": "kathmandu",
    "blood_group": "o+",
    "contact": "9849870045"
  },
  {
    "s.n": "142",
    "full_name": "julia shah",
    "address": "kathmandu",
    "blood_group": "o+",
    "contact": "9803608169"
  },
  {
    "s.n": "143",
    "full_name": "suresh shrestha",
    "address": "kathmandu",
    "blood_group": "a+",
    "contact": "9808509094"
  },
  {
    "s.n": "144",
    "full_name": "ravi hang angdeme",
    "address": "jhapa",
    "blood_group": "o+",
    "contact": "9816958837"
  },
  {
    "s.n": "145",
    "full_name": "sharad deshar",
    "address": "kathmandu",
    "blood_group": "ab+",
    "contact": "9849362411"
  },
  {
    "s.n": "146",
    "full_name": "bashu kafle",
    "address": "kathmandu",
    "blood_group": "a+",
    "contact": "9818554485"
  },
  {
    "s.n": "147",
    "full_name": "jeewan shrestha",
    "address": "kathmandu",
    "blood_group": "a+",
    "contact": "9849978125"
  },
  {
    "s.n": "148",
    "full_name": "giriraj shrestha",
    "address": "imadol",
    "blood_group": "lalitpur",
    "contact": "a+"
  },
  {
    "s.n": "149",
    "full_name": "abhisek pandey",
    "address": "kathmandu",
    "blood_group": "o+",
    "contact": "9843214826"
  },
  {
    "s.n": "150",
    "full_name": "tek raj pant",
    "address": "kathmandu",
    "blood_group": "b+",
    "contact": "9805765707"
  },
  {
    "s.n": "151",
    "full_name": "gopal karki",
    "address": "kathmandu",
    "blood_group": "o+",
    "contact": "9803958474"
  }
]